<svg class="ldi-5he8n6" width="223px"  height="223px"  xmlns="http://www.w3.org/2000/svg" xmlns:xlink="http://www.w3.org/1999/xlink" viewBox="0 0 100 100" preserveAspectRatio="xMidYMid" style="background: none;"><!--?xml version="1.0" encoding="utf-8"?--><!--Generator: Adobe Illustrator 21.0.0, SVG Export Plug-In . SVG Version: 6.00 Build 0)--><svg version="1.1" id="Layer_1" xmlns="http://www.w3.org/2000/svg" xmlns:xlink="http://www.w3.org/1999/xlink" x="0px" y="0px" viewBox="0 0 100 100" style="transform-origin: 50px 50px 0px;" xml:space="preserve"><g style="transform-origin: 50px 50px 0px;"><g style="transform-origin: 50px 50px 0px; transform: scale(0.59);"><g style="transform-origin: 50px 50px 0px;"><g><style type="text/css" style="transform-origin: 50px 50px 0px; animation-duration: 1.7s; animation-delay: -1.7s; animation-direction: normal;" class="ld ld-cycle">.st0{fill:#F4E6C8;} .st1{opacity:0.8;fill:#849B87;} .st2{fill:#D65A62;} .st3{fill:#E15C64;} .st4{fill:#F47E5F;} .st5{fill:#F7B26A;} .st6{fill:#FEE8A2;} .st7{fill:#ACBD81;} .st8{fill:#F5E169;} .st9{fill:#F0AF6B;} .st10{fill:#EA7C60;} .st11{fill:#A8B980;} .st12{fill:#829985;} .st13{fill:#798AAE;} .st14{fill:#8672A7;} .st15{fill:#CC5960;} .st16{fill:#E17A5F;} .st17{fill:#849B87;} .st18{opacity:0.8;fill:#E15C64;} .st19{opacity:0.8;fill:#F7B26A;} .st20{fill:#79A5B5;} .st21{opacity:0.8;fill:#79A5B4;} .st22{fill:#666766;}</style><g style="transform-origin: 50px 50px 0px;"><g><g style="transform-origin: 50px 50px 0px; animation-duration: 1.7s; animation-delay: -1.57857s; animation-direction: normal;" class="ld ld-cycle"><path class="st2" d="M50,92.5C26.6,92.5,7.5,73.4,7.5,50S26.6,7.5,50,7.5S92.5,26.6,92.5,50S73.4,92.5,50,92.5z M50,20.7 c-16.1,0-29.3,13.1-29.3,29.3S33.9,79.3,50,79.3S79.3,66.1,79.3,50S66.1,20.7,50,20.7z" fill="#ffffff" style="fill: rgb(255, 255, 255);"></path></g></g></g><g style="transform-origin: 50px 50px 0px;"><g><g style="transform-origin: 50px 50px 0px; animation-duration: 1.7s; animation-delay: -1.45714s; animation-direction: normal;" class="ld ld-cycle"><path class="st9" d="M21.3,78.7C13.6,71,9.4,60.8,9.4,50C9.4,27.6,27.6,9.4,50,9.4v9.4c-17.2,0-31.2,14-31.2,31.2 c0,8.3,3.2,16.2,9.1,22L21.3,78.7z" fill="#096dd9" style="fill: rgb(9, 109, 217);"></path></g></g></g><metadata xmlns:d="https://loading.io/stock/" style="transform-origin: 50px 50px 0px; animation-duration: 1.7s; animation-delay: -1.33571s; animation-direction: normal;" class="ld ld-cycle">
<d:name style="transform-origin: 50px 50px 0px; animation-duration: 1.7s; animation-delay: -1.21429s; animation-direction: normal;" class="ld ld-cycle">ring</d:name>
<d:tags style="transform-origin: 50px 50px 0px; animation-duration: 1.7s; animation-delay: -1.09286s; animation-direction: normal;" class="ld ld-cycle">loader,circle,curve,rotate,wheel,spin,ring,spinner</d:tags>
<d:license style="transform-origin: 50px 50px 0px; animation-duration: 1.7s; animation-delay: -0.971429s; animation-direction: normal;" class="ld ld-cycle">rf</d:license>
<d:slug style="transform-origin: 50px 50px 0px; animation-duration: 1.7s; animation-delay: -0.85s; animation-direction: normal;" class="ld ld-cycle">5he8n6</d:slug>
</metadata></g></g></g></g><style type="text/css" style="transform-origin: 50px 50px 0px; animation-duration: 1.7s; animation-delay: -0.728571s; animation-direction: normal;" class="ld ld-cycle">@keyframes ld-cycle {
  0%, 50%, 100% {
    animation-timing-function: cubic-bezier(0.5, 0.5, 0.5, 0.5);
  }
  0% {
    -webkit-transform: rotate(0);
    transform: rotate(0);
  }
  50% {
    -webkit-transform: rotate(180deg);
    transform: rotate(180deg);
  }
  100% {
    -webkit-transform: rotate(360deg);
    transform: rotate(360deg);
  }
}
@-webkit-keyframes ld-cycle {
  0%, 50%, 100% {
    animation-timing-function: cubic-bezier(0.5, 0.5, 0.5, 0.5);
  }
  0% {
    -webkit-transform: rotate(0);
    transform: rotate(0);
  }
  50% {
    -webkit-transform: rotate(180deg);
    transform: rotate(180deg);
  }
  100% {
    -webkit-transform: rotate(360deg);
    transform: rotate(360deg);
  }
}
.ld.ld-cycle {
  -webkit-animation: ld-cycle 1s infinite linear;
  animation: ld-cycle 1s infinite linear;
}
</style></svg></svg>